mu0/mu0_structural.vcd
$date
	Wed Aug  4 21:17:48 2021
$end
$version
	Icarus Verilog
$end
$timescale
	1ps
$end
$scope module mu0_tb $end
$var wire 16 ! pc [15:0] $end
$var wire 16 " ir [15:0] $end
$var wire 16 # acc [15:0] $end
$var reg 1 $ clk $end
$var reg 1 % reset $end
$scope module processor $end
$var wire 16 & Zbus [15:0] $end
$var wire 1 $ clk $end
$var wire 1 % reset $end
$var wire 16 ' pc [15:0] $end
$var wire 16 ( ir [15:0] $end
$var wire 16 ) acc [15:0] $end
$var wire 1 * Ysel $end
$var wire 1 + Xsel $end
$var wire 16 , Xbus [15:0] $end
$var wire 1 - Wen $end
$var wire 1 . Ren $end
$var wire 1 / PCen $end
$var wire 2 0 M [1:0] $end
$var wire 1 1 IRen $end
$var wire 16 2 Dbus [15:0] $end
$var wire 1 3 Asel $end
$var wire 12 4 Abus [11:0] $end
$var wire 1 5 ACCen $end
$scope module control_unit $end
$var wire 1 $ clk $end
$var wire 4 6 opcode [3:0] $end
$var wire 1 % reset $end
$var wire 16 7 acc [15:0] $end
$var reg 1 5 ACCen $end
$var reg 4 8 ADD [3:0] $end
$var reg 1 3 Asel $end
$var reg 1 1 IRen $end
$var reg 4 9 JGE [3:0] $end
$var reg 4 : JMP [3:0] $end
$var reg 4 ; JNE [3:0] $end
$var reg 4 < LDA [3:0] $end
$var reg 2 = M [1:0] $end
$var reg 1 / PCen $end
$var reg 1 . Ren $end
$var reg 4 > STO [3:0] $end
$var reg 4 ? STP [3:0] $end
$var reg 4 @ SUB [3:0] $end
$var reg 1 - Wen $end
$var reg 1 + Xsel $end
$var reg 1 * Ysel $end
$var reg 2 A next_state [1:0] $end
$var reg 2 B state [1:0] $end
$upscope $end
$scope module datapath $end
$var wire 1 5 ACCen $end
$var wire 1 3 Asel $end
$var wire 1 1 IRen $end
$var wire 2 C M [1:0] $end
$var wire 1 / PCen $end
$var wire 1 + Xsel $end
$var wire 1 * Ysel $end
$var wire 1 $ clk $end
$var wire 1 % reset $end
$var wire 16 D pc [15:0] $end
$var wire 16 E ir [15:0] $end
$var wire 16 F acc [15:0] $end
$var wire 16 G Zbus [15:0] $end
$var wire 16 H Ybus [15:0] $end
$var wire 16 I Xbus [15:0] $end
$var wire 16 J Dbus [15:0] $end
$var wire 12 K Abus [11:0] $end
$scope module Accumulator $end
$var wire 1 $ clk $end
$var wire 1 5 en $end
$var wire 1 % rs $end
$var wire 16 L d [15:0] $end
$var reg 16 M q [15:0] $end
$upscope $end
$scope module InstructionRegister $end
$var wire 1 $ clk $end
$var wire 1 1 en $end
$var wire 1 % rs $end
$var wire 16 N d [15:0] $end
$var reg 16 O q [15:0] $end
$upscope $end
$scope module ProgramCounter $end
$var wire 1 $ clk $end
$var wire 1 / en $end
$var wire 1 % rs $end
$var wire 16 P d [15:0] $end
$var reg 16 Q q [15:0] $end
$upscope $end
$scope module a_mux $end
$var wire 12 R a [11:0] $end
$var wire 12 S b [11:0] $end
$var wire 1 3 s $end
$var wire 12 T z [11:0] $end
$upscope $end
$scope module alu $end
$var wire 2 U M [1:0] $end
$var wire 16 V Y [15:0] $end
$var wire 16 W X [15:0] $end
$var reg 16 X Z [15:0] $end
$upscope $end
$scope module x_mux $end
$var wire 16 Y a [15:0] $end
$var wire 16 Z b [15:0] $end
$var wire 1 + s $end
$var wire 16 [ z [15:0] $end
$upscope $end
$scope module y_mux $end
$var wire 16 \ a [15:0] $end
$var wire 1 * s $end
$var wire 16 ] z [15:0] $end
$var wire 16 ^ b [15:0] $end
$upscope $end
$upscope $end
$scope module memory $end
$var wire 1 $ Clk $end
$var wire 1 . Ren $end
$var wire 1 - Wen $end
$var wire 12 _ address [11:0] $end
$var wire 16 ` write_data [15:0] $end
$var reg 16 a read_data [15:0] $end
$upscope $end
$upscope $end
$upscope $end
$enddefinitions $end
#0
$dumpvars
bx a
bx `
bx _
bx ^
bx ]
bx \
bx [
bx Z
bx Y
bx X
bx W
bx V
bx U
bx T
bx S
bx R
bx Q
bx P
bx O
bx N
bx M
bx L
bx K
bx J
bx I
bx H
bx G
bx F
bx E
bx D
bx C
bx B
bx A
b11 @
b111 ?
b1 >
bx =
b0 <
b110 ;
b100 :
b101 9
b10 8
bx 7
bx 6
x5
bx 4
x3
bx 2
x1
bx 0
x/
x.
x-
bx ,
x+
x*
bx )
bx (
bx '
bz &
1%
0$
bx #
bx "
bx !
$end
#5000
0.
0-
15
11
1/
b1 A
b0 B
1$
#10000
0$
0%
#15000
1.
03
0+
b10 0
b10 =
b10 C
b10 U
05
b10 A
b1 B
1$
#20000
0$
#25000
0.
0/
01
b1 A
b10 B
1$
#30000
0$
#35000
1.
1/
11
b10 A
b1 B
1$
#40000
0$
#45000
0.
0/
01
b1 A
b10 B
1$
#50000
0$
#55000
1.
1/
11
b10 A
b1 B
1$
#60000
0$
#65000
0.
0/
01
b1 A
b10 B
1$
#70000
0$
#75000
1.
1/
11
b10 A
b1 B
1$
#80000
0$
#85000
0.
0/
01
b1 A
b10 B
1$
#90000
0$
#95000
1.
1/
11
b10 A
b1 B
1$
#100000
0$
#105000
0.
0/
01
b1 A
b10 B
1$
#110000
0$
#115000
1.
1/
11
b10 A
b1 B
1$
#120000
0$
#125000
0.
0/
01
b1 A
b10 B
1$
#130000
0$
#135000
1.
1/
11
b10 A
b1 B
1$
#140000
0$
#145000
0.
0/
01
b1 A
b10 B
1$
#150000
0$
#155000
1.
1/
11
b10 A
b1 B
1$
#160000
0$
#165000
0.
0/
01
b1 A
b10 B
1$
#170000
0$
#175000
1.
1/
11
b10 A
b1 B
1$
#180000
0$
#185000
0.
0/
01
b1 A
b10 B
1$
#190000
0$
#195000
1.
1/
11
b10 A
b1 B
1$
#200000
0$
#205000
0.
0/
01
b1 A
b10 B
1$
#210000
0$
#215000
1.
1/
11
b10 A
b1 B
1$
#220000
0$
#225000
0.
0/
01
b1 A
b10 B
1$
#230000
0$
#235000
1.
1/
11
b10 A
b1 B
1$
#240000
0$
#245000
0.
0/
01
b1 A
b10 B
1$
#250000
0$
#255000
1.
1/
11
b10 A
b1 B
1$
#260000
0$
#265000
0.
0/
01
b1 A
b10 B
1$
#270000
0$
#275000
1.
1/
11
b10 A
b1 B
1$
#280000
0$
#285000
0.
0/
01
b1 A
b10 B
1$
#290000
0$
#295000
1.
1/
11
b10 A
b1 B
1$
#300000
0$
#305000
0.
0/
01
b1 A
b10 B
1$
#310000
0$
#315000
1.
1/
11
b10 A
b1 B
1$
#320000
0$
#325000
0.
0/
01
b1 A
b10 B
1$
#330000
0$
#335000
1.
1/
11
b10 A
b1 B
1$
#340000
0$
#345000
0.
0/
01
b1 A
b10 B
1$
#350000
0$
#355000
1.
1/
11
b10 A
b1 B
1$
#360000
0$
#365000
0.
0/
01
b1 A
b10 B
1$
#370000
0$
#375000
1.
1/
11
b10 A
b1 B
1$
#380000
0$
#385000
0.
0/
01
b1 A
b10 B
1$
#390000
0$
#395000
1.
1/
11
b10 A
b1 B
1$
#400000
0$
#405000
0.
0/
01
b1 A
b10 B
1$
#410000
0$
#415000
1.
1/
11
b10 A
b1 B
1$
#420000
0$
#425000
0.
0/
01
b1 A
b10 B
1$
#430000
0$
#435000
1.
1/
11
b10 A
b1 B
1$
#440000
0$
#445000
0.
0/
01
b1 A
b10 B
1$
#450000
0$
#455000
1.
1/
11
b10 A
b1 B
1$
#460000
0$
#465000
0.
0/
01
b1 A
b10 B
1$
#470000
0$
#475000
1.
1/
11
b10 A
b1 B
1$
#480000
0$
#485000
0.
0/
01
b1 A
b10 B
1$
#490000
0$
#495000
1.
1/
11
b10 A
b1 B
1$
#500000
0$
#505000
0.
0/
01
b1 A
b10 B
1$
#510000
0$
#515000
1.
1/
11
b10 A
b1 B
1$
#520000
0$
#525000
0.
0/
01
b1 A
b10 B
1$
#530000
0$
#535000
1.
1/
11
b10 A
b1 B
1$
#540000
0$
#545000
0.
0/
01
b1 A
b10 B
1$
#550000
0$
#555000
1.
1/
11
b10 A
b1 B
1$
#560000
0$
#565000
0.
0/
01
b1 A
b10 B
1$
#570000
0$
#575000
1.
1/
11
b10 A
b1 B
1$
#580000
0$
#585000
0.
0/
01
b1 A
b10 B
1$
#590000
0$
#595000
1.
1/
11
b10 A
b1 B
1$
#600000
0$
#605000
0.
0/
01
b1 A
b10 B
1$
#610000
0$
#615000
1.
1/
11
b10 A
b1 B
1$
#620000
0$
#625000
0.
0/
01
b1 A
b10 B
1$
#630000
0$
#635000
1.
1/
11
b10 A
b1 B
1$
#640000
0$
#645000
0.
0/
01
b1 A
b10 B
1$
#650000
0$
#655000
1.
1/
11
b10 A
b1 B
1$
#660000
0$
#665000
0.
0/
01
b1 A
b10 B
1$
#670000
0$
#675000
1.
1/
11
b10 A
b1 B
1$
#680000
0$
#685000
0.
0/
01
b1 A
b10 B
1$
#690000
0$
#695000
1.
1/
11
b10 A
b1 B
1$
#700000
0$
#705000
0.
0/
01
b1 A
b10 B
1$
#710000
0$
#715000
1.
1/
11
b10 A
b1 B
1$
#720000
0$
#725000
0.
0/
01
b1 A
b10 B
1$
#730000
0$
#735000
1.
1/
11
b10 A
b1 B
1$
#740000
0$
#745000
0.
0/
01
b1 A
b10 B
1$
#750000
0$
#755000
1.
1/
11
b10 A
b1 B
1$
#760000
0$
#765000
0.
0/
01
b1 A
b10 B
1$
#770000
0$
#775000
1.
1/
11
b10 A
b1 B
1$
#780000
0$
#785000
0.
0/
01
b1 A
b10 B
1$
#790000
0$
#795000
1.
1/
11
b10 A
b1 B
1$
#800000
0$
#805000
0.
0/
01
b1 A
b10 B
1$
#810000
0$
#815000
1.
1/
11
b10 A
b1 B
1$
#820000
0$
#825000
0.
0/
01
b1 A
b10 B
1$
#830000
0$
#835000
1.
1/
11
b10 A
b1 B
1$
#840000
0$
#845000
0.
0/
01
b1 A
b10 B
1$
#850000
0$
#855000
1.
1/
11
b10 A
b1 B
1$
#860000
0$
#865000
0.
0/
01
b1 A
b10 B
1$
#870000
0$
#875000
1.
1/
11
b10 A
b1 B
1$
#880000
0$
#885000
0.
0/
01
b1 A
b10 B
1$
#890000
0$
#895000
1.
1/
11
b10 A
b1 B
1$
#900000
0$
#905000
0.
0/
01
b1 A
b10 B
1$
#910000
0$
#915000
1.
1/
11
b10 A
b1 B
1$
#920000
0$
#925000
0.
0/
01
b1 A
b10 B
1$
#930000
0$
#935000
1.
1/
11
b10 A
b1 B
1$
#940000
0$
#945000
0.
0/
01
b1 A
b10 B
1$
#950000
0$
#955000
1.
1/
11
b10 A
b1 B
1$
#960000
0$
#965000
0.
0/
01
b1 A
b10 B
1$
#970000
0$
#975000
1.
1/
11
b10 A
b1 B
1$
#980000
0$
#985000
0.
0/
01
b1 A
b10 B
1$
#990000
0$
#995000
1.
1/
11
b10 A
b1 B
1$
