gcd/gcd.vcd
$date
	Wed Aug  4 21:17:47 2021
$end
$version
	Icarus Verilog
$end
$timescale
	10ps
$end
$scope module gcd_main $end
$var wire 8 ! outp [7:0] $end
$var wire 1 " done $end
$var reg 1 # Passed $end
$var reg 8 $ a [7:0] $end
$var reg 8 % b [7:0] $end
$var reg 1 & clock $end
$var reg 1 ' reset $end
$var reg 1 ( start $end
$var reg 8 ) y_ref [7:0] $end
$var integer 32 * N [31:0] $end
$var integer 32 + SimResults [31:0] $end
$var integer 32 , ncycles [31:0] $end
$scope module test $end
$var wire 8 - a [7:0] $end
$var wire 8 . b [7:0] $end
$var wire 1 & clock $end
$var wire 1 ' reset $end
$var wire 1 ( start $end
$var reg 1 " done $end
$var reg 8 / outp [7:0] $end
$var reg 2 0 state [1:0] $end
$var reg 8 1 x_next [7:0] $end
$var reg 8 2 x_reg [7:0] $end
$var reg 8 3 y_next [7:0] $end
$var reg 8 4 y_reg [7:0] $end
$upscope $end
$upscope $end
$enddefinitions $end
#0
$dumpvars
b0 4
bx 3
b0 2
bx 1
b0 0
b0 /
b110001 .
b10101 -
b0 ,
b10 +
b0 *
b111 )
x(
1'
0&
b110001 %
b10101 $
1#
0"
b0 !
$end
#2500
1&
#5000
0&
1(
0'
#7500
b1 0
b110001 3
b10101 1
bx 4
bx 2
b1 ,
1&
#10000
0&
#12500
b10 ,
b10 0
b110001 4
b10101 2
1&
#15000
0&
#17500
b11100 3
b11 ,
1&
#20000
0&
#22500
b100 ,
b111 3
b11100 4
1&
#25000
0&
#27500
b1110 1
b111 4
b101 ,
1&
#30000
0&
#32500
b110 ,
b111 1
b1110 2
1&
#35000
0&
#37500
b11 0
b111 2
b111 ,
1&
#40000
0&
#42500
b1000 ,
b0 0
b111 !
b111 /
1"
1&
#45000
0&
#47500
b0 !
b0 /
b0 4
b0 2
0"
b0 ,
1&
1'
b101 )
b11110 %
b11110 .
b11001 $
b11001 -
b1 *
#50000
0&
#52500
b1 ,
b1 0
b11110 3
b11001 1
b111 4
b111 2
1&
0'
#55000
0&
#57500
b10 0
b11110 4
b11001 2
b10 ,
1&
#60000
0&
#62500
b11 ,
b101 3
1&
#65000
0&
#67500
b10100 1
b101 4
b100 ,
1&
#70000
0&
#72500
b101 ,
b1111 1
b10100 2
1&
#75000
0&
#77500
b1010 1
b1111 2
b110 ,
1&
#80000
0&
#82500
b111 ,
b101 1
b1010 2
1&
#85000
0&
#87500
b11 0
b101 2
b1000 ,
1&
#90000
0&
#92500
b1001 ,
b0 0
b101 !
b101 /
1"
1&
#95000
0&
#97500
b0 !
b0 /
b0 4
b0 2
0"
b0 ,
1&
1'
b1 )
b11011 %
b11011 .
b10011 $
b10011 -
b10 *
#100000
0&
#102500
b1 ,
b1 0
b11011 3
b10011 1
b101 4
b101 2
1&
0'
#105000
0&
#107500
b10 0
b11011 4
b10011 2
b10 ,
1&
#110000
0&
#112500
b11 ,
b1000 3
1&
#115000
0&
#117500
b1011 1
b1000 4
b100 ,
1&
#120000
0&
#122500
b101 ,
b11 1
b1011 2
1&
#125000
0&
#127500
b101 3
b11 2
b110 ,
1&
#130000
0&
#132500
b111 ,
b10 3
b101 4
1&
#135000
0&
#137500
b1 1
b10 4
b1000 ,
1&
#140000
0&
#142500
b1001 ,
b1 3
b1 2
1&
#145000
0&
#147500
b11 0
b1 4
b1010 ,
1&
#150000
0&
#152500
b1011 ,
b0 0
b1 !
b1 /
1"
1&
#155000
0&
#157500
b0 !
b0 /
b0 4
b0 2
0"
b0 ,
1&
1'
b101000 )
b101000 %
b101000 .
b101000 $
b101000 -
b11 *
#160000
0&
#162500
b1 ,
b1 0
b101000 3
b101000 1
b1 4
b1 2
1&
0'
#165000
0&
#167500
b10 0
b101000 4
b101000 2
b10 ,
1&
#170000
0&
#172500
b11 ,
b11 0
1&
#175000
0&
#177500
b0 0
b101000 !
b101000 /
1"
b100 ,
1&
#180000
0&
#182500
b0 ,
b0 !
b0 /
b0 4
b0 2
0"
1&
1'
b1010 )
b1101110 %
b1101110 .
b11111010 $
b11111010 -
b100 *
#185000
0&
#187500
b1 0
b1101110 3
b11111010 1
b101000 4
b101000 2
b1 ,
1&
0'
#190000
0&
#192500
b10 ,
b10 0
b1101110 4
b11111010 2
1&
#195000
0&
#197500
b10001100 1
b11 ,
1&
#200000
0&
#202500
b100 ,
b11110 1
b10001100 2
1&
#205000
0&
#207500
b1010000 3
b11110 2
b101 ,
1&
#210000
0&
#212500
b110 ,
b110010 3
b1010000 4
1&
#215000
0&
#217500
b10100 3
b110010 4
b111 ,
1&
#220000
0&
#222500
b1000 ,
b1010 1
b10100 4
1&
#225000
0&
#227500
b1010 3
b1010 2
b1001 ,
1&
#230000
0&
#232500
b1010 ,
b11 0
b1010 4
1&
#235000
0&
#237500
b0 0
b1010 !
b1010 /
1"
b1011 ,
1&
#240000
0&
#242500
b0 ,
b0 !
b0 /
b0 4
b0 2
0"
1&
1'
b101 )
b11111010 %
b11111010 .
b101 $
b101 -
b101 *
#245000
0&
#247500
b1 0
b11111010 3
b101 1
b1010 4
b1010 2
b1 ,
1&
0'
#250000
0&
#252500
b10 ,
b10 0
b11111010 4
b101 2
1&
#255000
0&
#257500
b11110101 3
b11 ,
1&
#260000
0&
#262500
b100 ,
b11110000 3
b11110101 4
1&
#265000
0&
#267500
b11101011 3
b11110000 4
b101 ,
1&
#270000
0&
#272500
b110 ,
b11100110 3
b11101011 4
1&
#275000
0&
#277500
b11100001 3
b11100110 4
b111 ,
1&
#280000
0&
#282500
b1000 ,
b11011100 3
b11100001 4
1&
#285000
0&
#287500
b11010111 3
b11011100 4
b1001 ,
1&
#290000
0&
#292500
b1010 ,
b11010010 3
b11010111 4
1&
#295000
0&
#297500
b11001101 3
b11010010 4
b1011 ,
1&
#300000
0&
#302500
b1100 ,
b11001000 3
b11001101 4
1&
#305000
0&
#307500
b11000011 3
b11001000 4
b1101 ,
1&
#310000
0&
#312500
b1110 ,
b10111110 3
b11000011 4
1&
#315000
0&
#317500
b10111001 3
b10111110 4
b1111 ,
1&
#320000
0&
#322500
b10000 ,
b10110100 3
b10111001 4
1&
#325000
0&
#327500
b10101111 3
b10110100 4
b10001 ,
1&
#330000
0&
#332500
b10010 ,
b10101010 3
b10101111 4
1&
#335000
0&
#337500
b10100101 3
b10101010 4
b10011 ,
1&
#340000
0&
#342500
b10100 ,
b10100000 3
b10100101 4
1&
#345000
0&
#347500
b10011011 3
b10100000 4
b10101 ,
1&
#350000
0&
#352500
b10110 ,
b10010110 3
b10011011 4
1&
#355000
0&
#357500
b10010001 3
b10010110 4
b10111 ,
1&
#360000
0&
#362500
b11000 ,
b10001100 3
b10010001 4
1&
#365000
0&
#367500
b10000111 3
b10001100 4
b11001 ,
1&
#370000
0&
#372500
b11010 ,
b10000010 3
b10000111 4
1&
#375000
0&
#377500
b1111101 3
b10000010 4
b11011 ,
1&
#380000
0&
#382500
b11100 ,
b1111000 3
b1111101 4
1&
#385000
0&
#387500
b1110011 3
b1111000 4
b11101 ,
1&
#390000
0&
#392500
b11110 ,
b1101110 3
b1110011 4
1&
#395000
0&
#397500
b1101001 3
b1101110 4
b11111 ,
1&
#400000
0&
#402500
b100000 ,
b1100100 3
b1101001 4
1&
#405000
0&
#407500
b1011111 3
b1100100 4
b100001 ,
1&
#410000
0&
#412500
b100010 ,
b1011010 3
b1011111 4
1&
#415000
0&
#417500
b1010101 3
b1011010 4
b100011 ,
1&
#420000
0&
#422500
b100100 ,
b1010000 3
b1010101 4
1&
#425000
0&
#427500
b1001011 3
b1010000 4
b100101 ,
1&
#430000
0&
#432500
b100110 ,
b1000110 3
b1001011 4
1&
#435000
0&
#437500
b1000001 3
b1000110 4
b100111 ,
1&
#440000
0&
#442500
b101000 ,
b111100 3
b1000001 4
1&
#445000
0&
#447500
b110111 3
b111100 4
b101001 ,
1&
#450000
0&
#452500
b101010 ,
b110010 3
b110111 4
1&
#455000
0&
#457500
b101101 3
b110010 4
b101011 ,
1&
#460000
0&
#462500
b101100 ,
b101000 3
b101101 4
1&
#465000
0&
#467500
b100011 3
b101000 4
b101101 ,
1&
#470000
0&
#472500
b101110 ,
b11110 3
b100011 4
1&
#475000
0&
#477500
b11001 3
b11110 4
b101111 ,
1&
#480000
0&
#482500
b110000 ,
b10100 3
b11001 4
1&
#485000
0&
#487500
b1111 3
b10100 4
b110001 ,
1&
#490000
0&
#492500
b110010 ,
b1010 3
b1111 4
1&
#495000
0&
#497500
b101 3
b1010 4
b110011 ,
1&
#500000
0&
#502500
b110100 ,
b11 0
b101 4
1&
#505000
0&
#507500
b0 0
b101 !
b101 /
1"
b110101 ,
1&
#510000
0&
#512500
b0 ,
b0 !
b0 /
b0 4
b0 2
0"
1&
1'
b1 )
b1 %
b1 .
b1 $
b1 -
b110 *
#515000
0&
#517500
b1 0
b1 3
b1 1
b101 4
b101 2
b1 ,
1&
0'
#520000
0&
#522500
b10 ,
b10 0
b1 4
b1 2
1&
#525000
0&
#527500
b11 0
b11 ,
1&
#530000
0&
#532500
b100 ,
b0 0
b1 !
b1 /
1"
1&
#535000
0&
#537500
b0 !
b0 /
b0 4
b0 2
0"
b0 ,
1&
1'
b0 )
b0 %
b0 .
b0 $
b0 -
b111 *
#540000
0&
#542500
b1 ,
b1 0
b0 3
b0 1
b1 4
b1 2
1&
0'
#545000
0&
#547500
b11 0
b0 4
b0 2
b10 ,
1&
#550000
0&
#552500
b11 ,
b0 0
1"
1&
#555000
0&
#557500
b1 0
0"
b100 ,
1&
b1000 *
